^C:\USERS\CHRISTOPHINE\DOCUMENTS\VISUAL STUDIO 2015\PROJECTS\DLLPROJECT\ARMADILLO\ARMADILLO.CPP|C:\USERS\CHRISTOPHINE\DOCUMENTS\VISUAL STUDIO 2015\PROJECTS\DLLPROJECT\ARMADILLO\STDAFX.CPP
C:\USERS\CHRISTOPHINE\DOCUMENTS\VISUAL STUDIO 2015\PROJECTS\DLLPROJECT\ARMADILLO\DEBUG\VC140.PDB
C:\USERS\CHRISTOPHINE\DOCUMENTS\VISUAL STUDIO 2015\PROJECTS\DLLPROJECT\ARMADILLO\DEBUG\VC140.IDB
C:\USERS\CHRISTOPHINE\DOCUMENTS\VISUAL STUDIO 2015\PROJECTS\DLLPROJECT\ARMADILLO\DEBUG\STDAFX.OBJ
^C:\USERS\CHRISTOPHINE\DOCUMENTS\VISUAL STUDIO 2015\PROJECTS\DLLPROJECT\ARMADILLO\ARMADILLO.CPP
C:\USERS\CHRISTOPHINE\DOCUMENTS\VISUAL STUDIO 2015\PROJECTS\DLLPROJECT\ARMADILLO\DEBUG\VC140.PDB
C:\USERS\CHRISTOPHINE\DOCUMENTS\VISUAL STUDIO 2015\PROJECTS\DLLPROJECT\ARMADILLO\DEBUG\VC140.IDB
C:\USERS\CHRISTOPHINE\DOCUMENTS\VISUAL STUDIO 2015\PROJECTS\DLLPROJECT\ARMADILLO\DEBUG\ARMADILLO.OBJ
^C:\USERS\CHRISTOPHINE\DOCUMENTS\VISUAL STUDIO 2015\PROJECTS\DLLPROJECT\ARMADILLO\STDAFX.CPP
C:\USERS\CHRISTOPHINE\DOCUMENTS\VISUAL STUDIO 2015\PROJECTS\DLLPROJECT\ARMADILLO\DEBUG\VC140.PDB
^C:\USERS\CHRISTOPHINE\DOCUMENTS\VISUAL STUDIO 2015\PROJECTS\DLLPROJECT\ARMADILLO\DLLMAIN.CPP
C:\USERS\CHRISTOPHINE\DOCUMENTS\VISUAL STUDIO 2015\PROJECTS\DLLPROJECT\ARMADILLO\DEBUG\VC140.PDB
C:\USERS\CHRISTOPHINE\DOCUMENTS\VISUAL STUDIO 2015\PROJECTS\DLLPROJECT\ARMADILLO\DEBUG\VC140.IDB
C:\USERS\CHRISTOPHINE\DOCUMENTS\VISUAL STUDIO 2015\PROJECTS\DLLPROJECT\ARMADILLO\DEBUG\DLLMAIN.OBJ
