^C:\USERS\CHRISTOPHINE\DOCUMENTS\VISUAL STUDIO 2015\PROJECTS\DLLPROJECT\ARMADILLO\DEBUG\ARMADILLO.OBJ|C:\USERS\CHRISTOPHINE\DOCUMENTS\VISUAL STUDIO 2015\PROJECTS\DLLPROJECT\ARMADILLO\DEBUG\DLLMAIN.OBJ|C:\USERS\CHRISTOPHINE\DOCUMENTS\VISUAL STUDIO 2015\PROJECTS\DLLPROJECT\ARMADILLO\DEBUG\STDAFX.OBJ
C:\USERS\CHRISTOPHINE\DOCUMENTS\VISUAL STUDIO 2015\PROJECTS\DLLPROJECT\DEBUG\ARMADILLO.ILK
C:\USERS\CHRISTOPHINE\DOCUMENTS\VISUAL STUDIO 2015\PROJECTS\DLLPROJECT\DEBUG\ARMADILLO.DLL
C:\USERS\CHRISTOPHINE\DOCUMENTS\VISUAL STUDIO 2015\PROJECTS\DLLPROJECT\DEBUG\ARMADILLO.PDB
