^C:\USERS\CHRISTOPHINE\DOCUMENTS\VISUAL STUDIO 2015\PROJECTS\DLLPROJECT\CONSOLEAPPLICATION1\DEBUG\DLLOADER.OBJ|C:\USERS\CHRISTOPHINE\DOCUMENTS\VISUAL STUDIO 2015\PROJECTS\DLLPROJECT\CONSOLEAPPLICATION1\DEBUG\MAIN.OBJ|C:\USERS\CHRISTOPHINE\DOCUMENTS\VISUAL STUDIO 2015\PROJECTS\DLLPROJECT\CONSOLEAPPLICATION1\DEBUG\STDAFX.OBJ
C:\WINDOWS\GLOBALIZATION\SORTING\SORTDEFAULT.NLS
C:\WINDOWS\SYSWOW64\NTDLL.DLL
C:\WINDOWS\SYSWOW64\KERNELBASE.DLL
C:\WINDOWS\SYSTEM32\FLTLIB.DLL
C:\WINDOWS\SYSWOW64\KERNEL32.DLL
C:\WINDOWS\SYSWOW64\OLE32.DLL
C:\WINDOWS\SYSWOW64\GDI32.DLL
C:\WINDOWS\SYSWOW64\USER32.DLL
C:\WINDOWS\SYSWOW64\SHELL32.DLL
C:\PROGRAM FILES (X86)\WINDOWS KITS\8.1\LIB\WINV6.3\UM\X86\KERNEL32.LIB
C:\PROGRAM FILES (X86)\WINDOWS KITS\8.1\LIB\WINV6.3\UM\X86\USER32.LIB
C:\PROGRAM FILES (X86)\WINDOWS KITS\8.1\LIB\WINV6.3\UM\X86\GDI32.LIB
C:\PROGRAM FILES (X86)\WINDOWS KITS\8.1\LIB\WINV6.3\UM\X86\WINSPOOL.LIB
C:\PROGRAM FILES (X86)\WINDOWS KITS\8.1\LIB\WINV6.3\UM\X86\COMDLG32.LIB
C:\PROGRAM FILES (X86)\WINDOWS KITS\8.1\LIB\WINV6.3\UM\X86\ADVAPI32.LIB
C:\PROGRAM FILES (X86)\WINDOWS KITS\8.1\LIB\WINV6.3\UM\X86\SHELL32.LIB
C:\PROGRAM FILES (X86)\WINDOWS KITS\8.1\LIB\WINV6.3\UM\X86\OLE32.LIB
C:\PROGRAM FILES (X86)\WINDOWS KITS\8.1\LIB\WINV6.3\UM\X86\OLEAUT32.LIB
C:\PROGRAM FILES (X86)\WINDOWS KITS\8.1\LIB\WINV6.3\UM\X86\UUID.LIB
C:\PROGRAM FILES (X86)\WINDOWS KITS\8.1\LIB\WINV6.3\UM\X86\ODBC32.LIB
C:\PROGRAM FILES (X86)\WINDOWS KITS\8.1\LIB\WINV6.3\UM\X86\ODBCCP32.LIB
C:\USERS\CHRISTOPHINE\DOCUMENTS\VISUAL STUDIO 2015\PROJECTS\DLLPROJECT\CONSOLEAPPLICATION1\DEBUG\MAIN.OBJ
C:\USERS\CHRISTOPHINE\DOCUMENTS\VISUAL STUDIO 2015\PROJECTS\DLLPROJECT\CONSOLEAPPLICATION1\DEBUG\DLLOADER.OBJ
C:\USERS\CHRISTOPHINE\DOCUMENTS\VISUAL STUDIO 2015\PROJECTS\DLLPROJECT\CONSOLEAPPLICATION1\DEBUG\STDAFX.OBJ
C:\WINDOWS\SYSTEM32\TZRES.DLL
C:\PROGRAM FILES (X86)\MICROSOFT VISUAL STUDIO 14.0\VC\LIB\MSVCPRTD.LIB
C:\PROGRAM FILES (X86)\MICROSOFT VISUAL STUDIO 14.0\VC\LIB\MSVCRTD.LIB
C:\PROGRAM FILES (X86)\MICROSOFT VISUAL STUDIO 14.0\VC\LIB\OLDNAMES.LIB
C:\PROGRAM FILES (X86)\MICROSOFT VISUAL STUDIO 14.0\VC\LIB\VCRUNTIMED.LIB
C:\PROGRAM FILES (X86)\WINDOWS KITS\10\LIB\10.0.10150.0\UCRT\X86\UCRTD.LIB
