^C:\USERS\CHRISTOPHINE\DOCUMENTS\VISUAL STUDIO 2015\PROJECTS\DLLPROJECT\DLLPROJECT\STDAFX.CPP
C:\USERS\CHRISTOPHINE\DOCUMENTS\VISUAL STUDIO 2015\PROJECTS\DLLPROJECT\DLLPROJECT\DEBUG\DLLPROJECT.PCH
C:\USERS\CHRISTOPHINE\DOCUMENTS\VISUAL STUDIO 2015\PROJECTS\DLLPROJECT\DLLPROJECT\DEBUG\VC140.PDB
C:\USERS\CHRISTOPHINE\DOCUMENTS\VISUAL STUDIO 2015\PROJECTS\DLLPROJECT\DLLPROJECT\DEBUG\VC140.IDB
C:\USERS\CHRISTOPHINE\DOCUMENTS\VISUAL STUDIO 2015\PROJECTS\DLLPROJECT\DLLPROJECT\DEBUG\STDAFX.OBJ
^C:\USERS\CHRISTOPHINE\DOCUMENTS\VISUAL STUDIO 2015\PROJECTS\DLLPROJECT\DLLPROJECT\DLLMAIN.CPP
C:\USERS\CHRISTOPHINE\DOCUMENTS\VISUAL STUDIO 2015\PROJECTS\DLLPROJECT\DLLPROJECT\DEBUG\VC140.PDB
C:\USERS\CHRISTOPHINE\DOCUMENTS\VISUAL STUDIO 2015\PROJECTS\DLLPROJECT\DLLPROJECT\DEBUG\VC140.IDB
C:\USERS\CHRISTOPHINE\DOCUMENTS\VISUAL STUDIO 2015\PROJECTS\DLLPROJECT\DLLPROJECT\DEBUG\DLLMAIN.OBJ
^C:\USERS\CHRISTOPHINE\DOCUMENTS\VISUAL STUDIO 2015\PROJECTS\DLLPROJECT\DLLPROJECT\DLLPROJECT.CPP
C:\USERS\CHRISTOPHINE\DOCUMENTS\VISUAL STUDIO 2015\PROJECTS\DLLPROJECT\DLLPROJECT\DEBUG\VC140.PDB
C:\USERS\CHRISTOPHINE\DOCUMENTS\VISUAL STUDIO 2015\PROJECTS\DLLPROJECT\DLLPROJECT\DEBUG\VC140.IDB
C:\USERS\CHRISTOPHINE\DOCUMENTS\VISUAL STUDIO 2015\PROJECTS\DLLPROJECT\DLLPROJECT\DEBUG\DLLPROJECT.OBJ
