^C:\USERS\CHRISTOPHINE\DOCUMENTS\VISUAL STUDIO 2015\PROJECTS\DLLPROJECT\DLLPROJECT\STDAFX.CPP
/c /ZI /nologo /W3 /WX- /sdl /Od /Oy- /D WIN32 /D _DEBUG /D _WINDOWS /D _USRDLL /D DLLPROJECT_EXPORTS /D _WINDLL /D _UNICODE /D UNICODE /Gm /EHsc /RTC1 /MDd /GS /fp:precise /Zc:wchar_t /Zc:forScope /Zc:inline /Yc"stdafx.h" /Fp"DEBUG\PLATYPUS.PCH" /Fo"DEBUG\\" /Fd"DEBUG\VC140.PDB" /Gd /TP /analyze- C:\USERS\CHRISTOPHINE\DOCUMENTS\VISUAL STUDIO 2015\PROJECTS\DLLPROJECT\DLLPROJECT\STDAFX.CPP
^C:\USERS\CHRISTOPHINE\DOCUMENTS\VISUAL STUDIO 2015\PROJECTS\DLLPROJECT\DLLPROJECT\DLLMAIN.CPP
/c /ZI /nologo /W3 /WX- /sdl /Od /Oy- /D WIN32 /D _DEBUG /D _WINDOWS /D _USRDLL /D DLLPROJECT_EXPORTS /D _WINDLL /D _UNICODE /D UNICODE /Gm /EHsc /RTC1 /MDd /GS /fp:precise /Zc:wchar_t /Zc:forScope /Zc:inline /Fo"DEBUG\\" /Fd"DEBUG\VC140.PDB" /Gd /TP /analyze- C:\USERS\CHRISTOPHINE\DOCUMENTS\VISUAL STUDIO 2015\PROJECTS\DLLPROJECT\DLLPROJECT\DLLMAIN.CPP
^C:\USERS\CHRISTOPHINE\DOCUMENTS\VISUAL STUDIO 2015\PROJECTS\DLLPROJECT\DLLPROJECT\DLLPROJECT.CPP
/c /ZI /nologo /W3 /WX- /sdl /Od /Oy- /D WIN32 /D _DEBUG /D _WINDOWS /D _USRDLL /D DLLPROJECT_EXPORTS /D _WINDLL /D _UNICODE /D UNICODE /Gm /EHsc /RTC1 /MDd /GS /fp:precise /Zc:wchar_t /Zc:forScope /Zc:inline /Yu"stdafx.h" /Fp"DEBUG\PLATYPUS.PCH" /Fo"DEBUG\\" /Fd"DEBUG\VC140.PDB" /Gd /TP /analyze- C:\USERS\CHRISTOPHINE\DOCUMENTS\VISUAL STUDIO 2015\PROJECTS\DLLPROJECT\DLLPROJECT\DLLPROJECT.CPP
^C:\USERS\CHRISTOPHINE\DOCUMENTS\VISUAL STUDIO 2015\PROJECTS\DLLPROJECT\DLLPROJECT\PLATYPUS.CPP
/c /ZI /nologo /W3 /WX- /sdl /Od /Oy- /D WIN32 /D _DEBUG /D _WINDOWS /D _USRDLL /D DLLPROJECT_EXPORTS /D _WINDLL /D _UNICODE /D UNICODE /Gm /EHsc /RTC1 /MDd /GS /fp:precise /Zc:wchar_t /Zc:forScope /Zc:inline /Yu"stdafx.h" /Fp"DEBUG\PLATYPUS.PCH" /Fo"DEBUG\\" /Fd"DEBUG\VC140.PDB" /Gd /TP /analyze- C:\USERS\CHRISTOPHINE\DOCUMENTS\VISUAL STUDIO 2015\PROJECTS\DLLPROJECT\DLLPROJECT\PLATYPUS.CPP
